<svg version="1.1" xmlns="http://www.w3.org/2000/svg" xmlns:xlink="http://www.w3.org/1999/xlink" x="0px" y="0px" viewBox="0 0 160.8 161.5" style="width: 100%; height: 100%;" xml:space="preserve">
<style type="text/css">
	.ch3-illustr-st0-0{opacity:5.000000e-02;}
	.ch3-illustr-st0-1{fill:#020203;}
	.ch3-illustr-st0-2{fill:#FFFFFF;}
	.ch3-illustr-st0-3{fill:#E9F5FD;}
	.ch3-illustr-st0-4{fill:#DFF1FB;}
	.ch3-illustr-st0-5{fill:#D2EAFA;}
	.ch3-illustr-st0-6{fill:none;stroke:#000000;stroke-miterlimit:10;}
</style>
<g class="Layer_1">
	<g>
		<g>
			<g class="ch3-illustr-st0-0">
				<polygon class="ch3-illustr-st0-1" points="124.1,105 114.4,105.1 114.4,105 75.5,100.8 0.8,105 23.2,119.2 33.1,123.5 37.8,131.7 61.3,145.7 
					115.8,161.5 118.6,151.9 139.7,149.4 141.9,137.5 154.5,129.3 160.4,105 				"/>
			</g>
			<g>
				<polygon class="ch3-illustr-st0-2" points="83.7,6.1 34.1,34.8 18.8,60.1 21.9,107.7 124.2,108.5 160.8,108.5 143.8,64.5 126.3,49.6 117.5,28 
					92.8,23.5 				"/>
				<polygon class="ch3-illustr-st0-3" points="83.7,6.1 70,34.7 83.7,46.1 83.7,54.7 70,63.3 59.8,61.8 71.8,69.8 79.8,67.8 74.8,85.4 64.9,92.6 
					75.1,105.7 114.9,98.2 114.4,108.5 77.7,116.1 0,108.5 12.7,82.8 24.2,70 21.3,60.1 35.3,34.8 				"/>
				<polygon class="ch3-illustr-st0-4" points="114.9,98.2 115.6,82.8 130.7,77.3 128.3,94.1 141.7,91.4 125.8,107.4 114.2,105.9 				"/>
				<polygon class="ch3-illustr-st0-5" points="21.3,60.1 48.9,38.5 54.1,41.1 40.6,67.8 58.9,77.3 70.5,77.3 57.4,84 36.5,82.8 33.9,93.3 
					48.9,98.7 54.2,112.8 21.3,108.5 21.3,88.4 25.8,75.5 				"/>
				<g>
					<polygon class="ch3-illustr-st0-5" points="109.8,60.1 99.8,74.7 109.8,84 107.8,72 					"/>
					<polygon class="ch3-illustr-st0-5" points="115.6,82.8 104.8,100.1 114.9,98.2 					"/>
				</g>
			</g>
		</g>
	</g>
</g>
<g class="Layer_2">
	<g>
		<polyline class="ch3-illustr-st0-6" points="106.3,1.1 82.4,42.5 69.6,42.5 		"/>
		<g>
			<ellipse transform="matrix(0.4996 -0.8663 0.8663 0.4996 52.1888 92.5974)" cx="106.2" cy="1.1" rx="1.1" ry="1.1"/>
		</g>
		<g>
			<circle cx="69.6" cy="42.5" r="1.1"/>
		</g>
	</g>
</g>
</svg>